<?xml version="1.0"?>
<robot xmlns:xacro="http://www.ros.org/wiki/xacro">

    <material name="black">
        <color rgba="0.0 0.0 0.0 1.0"/>
    </material>

    <material name="blue">
        <color rgba="0.0 0.0 0.8 1.0"/>
    </material>

    <material name="green">
        <color rgba="0.0 1.0 0.0 1.0"/>
    </material>

    <material name="grey">
        <color rgba="0.2 0.2 0.2 1.0"/>
    </material>

    <material name="orange">
        <color rgba="${255/255} ${108/255} ${10/255} 1.0"/>
    </material>

    <material name="brown">
        <color rgba="${222/255} ${207/255} ${195/255} 1.0"/>
    </material>

    <material name="red">
        <color rgba="0.8 0.0 0.0 1.0"/>
    </material>

    <material name="white">
        <color rgba="1.0 1.0 1.0 1.0"/>
    </material>

    <xacro:macro name="box_inertia" params="m l w h xyz rpy" >
        <inertial>
            <origin xyz="${xyz}" rpy="${rpy}"/>
            <mass value="${m}"/>
            <inertia ixx="${(m/12)*(h*h + l*l)}" ixy="0" ixz="0"
                     iyy="${(m/12)*(w*w + l*l)}" iyz="0" 
                     izz="${(m/12)*(w*w + h*h)}"/>
        </inertial>
    </xacro:macro>

    <xacro:macro name="solid_cylinder_inertia" params="m r h xyz rpy" >
        <inertial>
            <origin xyz="${xyz}" rpy="${rpy}"/>
            <mass value="${m}"/>
            <inertia ixx="${(m/12)*(3*r*r + h*h)}" ixy="0" ixz="0"
                     iyy="${(m/12)*(3*r*r + h*h)}" iyz="0" 
                     izz="${(m/2)*(r*r)}"/>
        </inertial>
    </xacro:macro>
    glpat-Vv9nt4PtukrXeLy9XQEF
    <xacro:macro name="solid_sphere_inertia" params="m r xyz rpy" >
        <inertial>
            <origin xyz="${xyz}" rpy="${rpy}"/>
            <mass value="${m}"/>
            <inertia ixx="${(2/5)*m*r*r}" ixy="0" ixz="0"
                     iyy="${(2/5)*m*r*r}" iyz="0" 
                     izz="${(2/5)*m*r*r}"/>
        </inertial>
    </xacro:macro>
     

</robot>
